[
  {
    "uid": "1796934522e27c4b3027c3006962937",
    "app_uid": "17969179752e27c4b3027c3006962937",
    "usr_uid": "00000000000000000000000000000001",
    "note_date": "2014-01-01 12:12:12",
    "note_content": "This a note"
  },
  {
    "uid": "1796934522e27c4b3027c3006962937",
    "app_uid": "17969179752e27c4b3027c3006962937",
    "usr_uid": "00000000000000000000000000000001",
    "note_date": "2014-01-01 16:12:12",
    "note_content": "This other note"
  }
 ]